digilent_DIO_edges/1kHz1us/Tek002.csv

Model,MSO24
Label,
Waveform Type,ANALOG
Horizontal Units,s
Sample Interval,4.00000000e-10
Record Length,250
Zero Index,34.40625000
Vertical Units,V

Labels,
TIME,CH4
-1.37625000e-08,5.00000000e-02
-1.33625000e-08,5.00000000e-02
-1.29625000e-08,5.00000000e-02
-1.25625000e-08,5.00000000e-02
-1.21625000e-08,5.00000000e-02
-1.17625000e-08,5.00000000e-02
-1.13625000e-08,5.00000000e-02
-1.09625000e-08,5.00000000e-02
-1.05625000e-08,5.00000000e-02
-1.01625000e-08,5.00000000e-02
-9.76250000e-09,5.00000000e-02
-9.36250000e-09,5.00000000e-02
-8.96250000e-09,5.00000000e-02
-8.56250000e-09,5.00000000e-02
-8.16250000e-09,5.00000000e-02
-7.76250000e-09,5.00000000e-02
-7.36250000e-09,5.00000000e-02
-6.96250000e-09,5.00000000e-02
-6.56250000e-09,5.00000000e-02
-6.16250000e-09,5.00000000e-02
-5.76250000e-09,5.00000000e-02
-5.36250000e-09,5.00000000e-02
-4.96250000e-09,5.00000000e-02
-4.56250000e-09,5.00000000e-02
-4.16250000e-09,5.00000000e-02
-3.76250000e-09,5.00000000e-02
-3.36250000e-09,5.00000000e-02
-2.96250000e-09,7.00000000e-02
-2.56250000e-09,1.10000000e-01
-2.16250000e-09,1.50000000e-01
-1.76250000e-09,2.50000000e-01
-1.36250000e-09,3.70000000e-01
-9.62500000e-10,5.30000000e-01
-5.62500000e-10,7.10000000e-01
-1.62500000e-10,9.10000000e-01
2.37500000e-10,1.09000000e+00
6.37500000e-10,1.25000000e+00
1.03750000e-09,1.39000000e+00
1.43750000e-09,1.51000000e+00
1.83750000e-09,1.61000000e+00
2.23750000e-09,1.67000000e+00
2.63750000e-09,1.71000000e+00
3.03750000e-09,1.75000000e+00
3.43750000e-09,1.75000000e+00
3.83750000e-09,1.77000000e+00
4.23750000e-09,1.77000000e+00
4.63750000e-09,1.79000000e+00
5.03750000e-09,1.81000000e+00
5.43750000e-09,1.85000000e+00
5.83750000e-09,1.89000000e+00
6.23750000e-09,1.93000000e+00
6.63750000e-09,1.99000000e+00
7.03750000e-09,2.03000000e+00
7.43750000e-09,2.09000000e+00
7.83750000e-09,2.13000000e+00
8.23750000e-09,2.15000000e+00
8.63750000e-09,2.19000000e+00
9.03750000e-09,2.21000000e+00
9.43750000e-09,2.23000000e+00
9.83750000e-09,2.25000000e+00
1.02375000e-08,2.29000000e+00
1.06375000e-08,2.31000000e+00
1.10375000e-08,2.33000000e+00
1.14375000e-08,2.37000000e+00
1.18375000e-08,2.39000000e+00
1.22375000e-08,2.41000000e+00
1.26375000e-08,2.43000000e+00
1.30375000e-08,2.43000000e+00
1.34375000e-08,2.45000000e+00
1.38375000e-08,2.45000000e+00
1.42375000e-08,2.47000000e+00
1.46375000e-08,2.47000000e+00
1.50375000e-08,2.49000000e+00
1.54375000e-08,2.51000000e+00
1.58375000e-08,2.51000000e+00
1.62375000e-08,2.53000000e+00
1.66375000e-08,2.55000000e+00
1.70375000e-08,2.57000000e+00
1.74375000e-08,2.59000000e+00
1.78375000e-08,2.61000000e+00
1.82375000e-08,2.61000000e+00
1.86375000e-08,2.63000000e+00
1.90375000e-08,2.63000000e+00
1.94375000e-08,2.63000000e+00
1.98375000e-08,2.65000000e+00
2.02375000e-08,2.65000000e+00
2.06375000e-08,2.67000000e+00
2.10375000e-08,2.67000000e+00
2.14375000e-08,2.69000000e+00
2.18375000e-08,2.69000000e+00
2.22375000e-08,2.71000000e+00
2.26375000e-08,2.73000000e+00
2.30375000e-08,2.73000000e+00
2.34375000e-08,2.73000000e+00
2.38375000e-08,2.75000000e+00
2.42375000e-08,2.75000000e+00
2.46375000e-08,2.75000000e+00
2.50375000e-08,2.75000000e+00
2.54375000e-08,2.77000000e+00
2.58375000e-08,2.77000000e+00
2.62375000e-08,2.77000000e+00
2.66375000e-08,2.79000000e+00
2.70375000e-08,2.79000000e+00
2.74375000e-08,2.79000000e+00
2.78375000e-08,2.81000000e+00
2.82375000e-08,2.81000000e+00
2.86375000e-08,2.81000000e+00
2.90375000e-08,2.83000000e+00
2.94375000e-08,2.83000000e+00
2.98375000e-08,2.85000000e+00
3.02375000e-08,2.85000000e+00
3.06375000e-08,2.85000000e+00
3.10375000e-08,2.87000000e+00
3.14375000e-08,2.87000000e+00
3.18375000e-08,2.89000000e+00
3.22375000e-08,2.89000000e+00
3.26375000e-08,2.89000000e+00
3.30375000e-08,2.89000000e+00
3.34375000e-08,2.91000000e+00
3.38375000e-08,2.91000000e+00
3.42375000e-08,2.91000000e+00
3.46375000e-08,2.91000000e+00
3.50375000e-08,2.93000000e+00
3.54375000e-08,2.93000000e+00
3.58375000e-08,2.93000000e+00
3.62375000e-08,2.93000000e+00
3.66375000e-08,2.95000000e+00
3.70375000e-08,2.95000000e+00
3.74375000e-08,2.95000000e+00
3.78375000e-08,2.95000000e+00
3.82375000e-08,2.95000000e+00
3.86375000e-08,2.95000000e+00
3.90375000e-08,2.95000000e+00
3.94375000e-08,2.97000000e+00
3.98375000e-08,2.97000000e+00
4.02375000e-08,2.97000000e+00
4.06375000e-08,2.97000000e+00
4.10375000e-08,2.99000000e+00
4.14375000e-08,2.99000000e+00
4.18375000e-08,2.99000000e+00
4.22375000e-08,3.01000000e+00
4.26375000e-08,3.01000000e+00
4.30375000e-08,3.01000000e+00
4.34375000e-08,3.01000000e+00
4.38375000e-08,3.01000000e+00
4.42375000e-08,3.01000000e+00
4.46375000e-08,3.01000000e+00
4.50375000e-08,3.03000000e+00
4.54375000e-08,3.03000000e+00
4.58375000e-08,3.03000000e+00
4.62375000e-08,3.03000000e+00
4.66375000e-08,3.03000000e+00
4.70375000e-08,3.03000000e+00
4.74375000e-08,3.03000000e+00
4.78375000e-08,3.05000000e+00
4.82375000e-08,3.05000000e+00
4.86375000e-08,3.05000000e+00
4.90375000e-08,3.07000000e+00
4.94375000e-08,3.07000000e+00
4.98375000e-08,3.07000000e+00
5.02375000e-08,3.07000000e+00
5.06375000e-08,3.07000000e+00
5.10375000e-08,3.07000000e+00
5.14375000e-08,3.07000000e+00
5.18375000e-08,3.07000000e+00
5.22375000e-08,3.07000000e+00
5.26375000e-08,3.07000000e+00
5.30375000e-08,3.09000000e+00
5.34375000e-08,3.09000000e+00
5.38375000e-08,3.09000000e+00
5.42375000e-08,3.09000000e+00
5.46375000e-08,3.11000000e+00
5.50375000e-08,3.11000000e+00
5.54375000e-08,3.11000000e+00
5.58375000e-08,3.11000000e+00
5.62375000e-08,3.11000000e+00
5.66375000e-08,3.11000000e+00
5.70375000e-08,3.11000000e+00
5.74375000e-08,3.11000000e+00
5.78375000e-08,3.11000000e+00
5.82375000e-08,3.11000000e+00
5.86375000e-08,3.13000000e+00
5.90375000e-08,3.13000000e+00
5.94375000e-08,3.13000000e+00
5.98375000e-08,3.13000000e+00
6.02375000e-08,3.13000000e+00
6.06375000e-08,3.13000000e+00
6.10375000e-08,3.13000000e+00
6.14375000e-08,3.13000000e+00
6.18375000e-08,3.15000000e+00
6.22375000e-08,3.15000000e+00
6.26375000e-08,3.15000000e+00
6.30375000e-08,3.15000000e+00
6.34375000e-08,3.15000000e+00
6.38375000e-08,3.15000000e+00
6.42375000e-08,3.17000000e+00
6.46375000e-08,3.17000000e+00
6.50375000e-08,3.17000000e+00
6.54375000e-08,3.17000000e+00
6.58375000e-08,3.17000000e+00
6.62375000e-08,3.17000000e+00
6.66375000e-08,3.17000000e+00
6.70375000e-08,3.17000000e+00
6.74375000e-08,3.17000000e+00
6.78375000e-08,3.17000000e+00
6.82375000e-08,3.17000000e+00
6.86375000e-08,3.17000000e+00
6.90375000e-08,3.17000000e+00
6.94375000e-08,3.17000000e+00
6.98375000e-08,3.17000000e+00
7.02375000e-08,3.19000000e+00
7.06375000e-08,3.19000000e+00
7.10375000e-08,3.19000000e+00
7.14375000e-08,3.19000000e+00
7.18375000e-08,3.19000000e+00
7.22375000e-08,3.19000000e+00
7.26375000e-08,3.19000000e+00
7.30375000e-08,3.19000000e+00
7.34375000e-08,3.19000000e+00
7.38375000e-08,3.19000000e+00
7.42375000e-08,3.19000000e+00
7.46375000e-08,3.19000000e+00
7.50375000e-08,3.21000000e+00
7.54375000e-08,3.21000000e+00
7.58375000e-08,3.21000000e+00
7.62375000e-08,3.21000000e+00
7.66375000e-08,3.21000000e+00
7.70375000e-08,3.21000000e+00
7.74375000e-08,3.21000000e+00
7.78375000e-08,3.21000000e+00
7.82375000e-08,3.21000000e+00
7.86375000e-08,3.21000000e+00
7.90375000e-08,3.21000000e+00
7.94375000e-08,3.21000000e+00
7.98375000e-08,3.21000000e+00
8.02375000e-08,3.23000000e+00
8.06375000e-08,3.23000000e+00
8.10375000e-08,3.23000000e+00
8.14375000e-08,3.23000000e+00
8.18375000e-08,3.23000000e+00
8.22375000e-08,3.23000000e+00
8.26375000e-08,3.23000000e+00
8.30375000e-08,3.23000000e+00
8.34375000e-08,3.23000000e+00
8.38375000e-08,3.23000000e+00
8.42375000e-08,3.23000000e+00
8.46375000e-08,3.23000000e+00
8.50375000e-08,3.23000000e+00
8.54375000e-08,3.23000000e+00
8.58375000e-08,3.23000000e+00
